{
    "KPlugin": {
        "Authors": [
            {
                "Email": "kossebau@kde.org",
                "Name": "Friedrich W. H. Kossebau",
                "Name[ar]": "Friedrich W. H. Kossebau",
                "Name[ast]": "Friedrich W. H. Kossebau",
                "Name[az]": "Friedrich W. H. Kossebau",
                "Name[bg]": "Friedrich W. H. Kossebau",
                "Name[ca@valencia]": "Friedrich W. H. Kossebau",
                "Name[ca]": "Friedrich W. H. Kossebau",
                "Name[cs]": "Friedrich W. H. Kossebau",
                "Name[da]": "Friedrich W. H. Kossebau",
                "Name[de]": "Friedrich W. H. Kossebau",
                "Name[el]": "Friedrich W. H. Kossebau",
                "Name[en_GB]": "Friedrich W. H. Kossebau",
                "Name[es]": "Friedrich W. H. Kossebau",
                "Name[et]": "Friedrich W. H. Kossebau",
                "Name[eu]": "Friedrich W. H. Kossebau",
                "Name[fi]": "Friedrich W. H. Kossebau",
                "Name[fr]": "Friedrich W. H. Kossebau",
                "Name[gl]": "Friedrich W. H. Kossebau",
                "Name[hu]": "Friedrich W. H. Kossebau",
                "Name[ia]": "Friedrich W. H. Kossebau",
                "Name[id]": "Friedrich W. H. Kossebau",
                "Name[is]": "Friedrich W. H. Kossebau",
                "Name[it]": "Friedrich W. H. Kossebau",
                "Name[ko]": "Friedrich W. H. Kossebau",
                "Name[lt]": "Friedrich W. H. Kossebau",
                "Name[nl]": "Friedrich W. H. Kossebau",
                "Name[nn]": "Friedrich W.H. Kossebau",
                "Name[pl]": "Friedrich W. H. Kossebau",
                "Name[pt]": "Friedrich W. H. Kossebau",
                "Name[pt_BR]": "Friedrich W. H. Kossebau",
                "Name[ro]": "Friedrich W. H. Kossebau",
                "Name[ru]": "Friedrich W. H. Kossebau",
                "Name[sk]": "Friedrich W. H. Kossebau",
                "Name[sl]": "Friedrich W. H. Kossebau",
                "Name[sv]": "Friedrich W. H. Kossebau",
                "Name[tr]": "Friedrich W. H. Kossebau",
                "Name[uk]": "Friedrich W. H. Kossebau",
                "Name[x-test]": "xxFriedrich W. H. Kossebauxx",
                "Name[zh_CN]": "Friedrich W. H. Kossebau",
                "Name[zh_TW]": "Friedrich W. H. Kossebau"
            }
        ],
        "Description": "Find this device by making it play an alarm sound",
        "Description[ar]": "اعثر على هذا الهاتف بتشغيل صوت المنبّه",
        "Description[az]": "Bu cihazı, ona səs siqnalı göndərməklə tapın",
        "Description[bg]": "Намерете това устройство, като го накарате да възпроизведе алармен звук",
        "Description[ca@valencia]": "Troba este dispositiu fent que reproduïsca un so d'alarma",
        "Description[ca]": "Troba aquest dispositiu fent que reprodueixi un so d'alarma",
        "Description[cs]": "Najděte toto zařízení tím, že jej necháte přehrát zvuk upomínky",
        "Description[da]": "Find denne enhed ved at få den til at afspille en alarmlyd",
        "Description[de]": "Finden Sie dieses Gerät, indem Sie mit ihm einen Warnton abspielen lassen",
        "Description[el]": "Βρείτε αυτή τη συσκευή με ηχητική ειδοποίηση",
        "Description[en_GB]": "Find this device by making it play an alarm sound",
        "Description[es]": "Encuentre este dispositivo haciéndole reproducir un sonido de alarma",
        "Description[et]": "Seadme leidmine sellel häireheli esitamisega",
        "Description[eu]": "Aurkitu telefono hau alarma-soinu bat jo araziz",
        "Description[fi]": "Etsi tämä laite soitattamalla sillä hälytysääntä",
        "Description[fr]": "Trouver ce périphérique en déclenchant une alarme",
        "Description[gl]": "Reproducir un son de alarma neste dispositivo para atopalo",
        "Description[hu]": "Eszköz keresése és riasztóhang lejátszása azon",
        "Description[ia]": "Trova iste dispositivo per facer lo sonar con un sono de alarma",
        "Description[id]": "Temukan peranti ini dengan membuatnya membunyikan suara alarm",
        "Description[it]": "Trova questo dispositivo facendogli suonare un allarme sonoro",
        "Description[ja]": "アラーム音を鳴らしてあなたのデバイスを探します",
        "Description[ko]": "알람 소리를 울려서 이 장치 찾기",
        "Description[lt]": "Rasti šį įrenginį priverčiant jį atkurti signalo garsą",
        "Description[nl]": "Zoek dit apparaat door het een wekkersignaal te laten spelen",
        "Description[nn]": "Finn denne eininga ved å la ho spela eit lydsignal",
        "Description[pl]": "Pomaga znaleźć to urządzenie, odgrywając na nim dźwięk z innego urządzenia",
        "Description[pt]": "Descubra este dispositivo, pondo-o a tocar um alarme de som",
        "Description[pt_BR]": "Encontre este dispositivo fazendo ele reproduzir um som",
        "Description[ro]": "Găsiți acest dispozitiv făcându-l să sune o alarmă",
        "Description[ru]": "Поиск этого устройства при помощи звукового сигнала",
        "Description[sk]": "Nájdenie zariadenia prehraním výstražného zvuku",
        "Description[sl]": "Poišči to napravo, tako da ji sprožiš alarm",
        "Description[sv]": "Hitta apparaten genom att få den att spela ett alarmljud",
        "Description[tr]": "Bu aygıtı, bir alarm sesi çaldırarak bulun",
        "Description[uk]": "Знайти цей пристрій, наказавши йому відтворити дзвінок",
        "Description[x-test]": "xxFind this device by making it play an alarm soundxx",
        "Description[zh_CN]": "通过播放铃声来找到您不见的手机",
        "Description[zh_TW]": "讓手機發出警報聲，以讓您找到這個裝置。",
        "EnabledByDefault": true,
        "Icon": "edit-find",
        "Id": "kdeconnect_findthisdevice",
        "License": "GPL",
        "Name": "Find this device",
        "Name[ar]": "اعثر على هذا الهاتف",
        "Name[az]": "Bu cihazı tapmaq",
        "Name[bg]": "Открий това устройство",
        "Name[ca@valencia]": "Troba este dispositiu",
        "Name[ca]": "Troba aquest dispositiu",
        "Name[cs]": "Najít toto zařízení",
        "Name[da]": "Find denne enhed",
        "Name[de]": "Dieses Gerät suchen",
        "Name[el]": "Εύρεση αυτής της συσκευής",
        "Name[en_GB]": "Find this device",
        "Name[es]": "Encontrar este dispositivo",
        "Name[et]": "Seadme leidmine",
        "Name[eu]": "Aurkitu gailu hau",
        "Name[fi]": "Etsi tämä laite",
        "Name[fr]": "Trouver ce périphérique",
        "Name[gl]": "Atopar o dispositivo",
        "Name[hu]": "Eszköz keresése",
        "Name[ia]": "Trova iste dispositivo",
        "Name[id]": "Find this device",
        "Name[is]": "Finna þetta tæki",
        "Name[it]": "Trova questo dispositivo",
        "Name[ja]": "デバイスを探す",
        "Name[ko]": "이 장치 찾기",
        "Name[lt]": "Rasti šį įrenginį",
        "Name[nl]": "Dit apparaat zoeken",
        "Name[nn]": "Finn denne eininga",
        "Name[pl]": "Dzwonienie tym urządzeniem",
        "Name[pt]": "Procurar este dispositivo",
        "Name[pt_BR]": "Procurar este dispositivo",
        "Name[ro]": "Găsește acest dispozitiv",
        "Name[ru]": "Поиск этого устройства",
        "Name[sk]": "Nájsť toto zariadenie",
        "Name[sl]": "Poišči to napravo",
        "Name[sv]": "Hitta apparaten",
        "Name[tr]": "Bu aygıtı bul",
        "Name[uk]": "Знайти цей пристрій",
        "Name[x-test]": "xxFind this devicexx",
        "Name[zh_CN]": "查找此设备",
        "Name[zh_TW]": "尋找這個裝置",
        "ServiceTypes": [
            "KdeConnect/Plugin"
        ],
        "Version": "0.1",
        "Website": "https://kde.org"
    },
    "X-KDE-ConfigModule": "kdeconnect/kcms/kdeconnect_findthisdevice_config",
    "X-KdeConnect-SupportedPacketType": [
        "kdeconnect.findmyphone.request"
    ]
}
